  0
SECTION
  2
BLOCKS
  0
ENDSEC
  0
SECTION
  2
ENTITIES
  0
LINE
  8
0
 10
0
 20
86
 11
0
 21
124
  0
LINE
  8
0
 10
0
 20
124
 11
-1
 21
125
  0
LINE
  8
0
 10
-1
 20
125
 11
-11.8
 21
125
  0
LINE
  8
0
 10
-11.8
 20
125
 11
-11.8
 21
102.071
  0
LINE
  8
0
 10
-11.8
 20
102.071
 11
-6
 21
102.071
  0
LINE
  8
0
 10
-6
 20
102.071
 11
-5.82307
 21
102.062
  0
LINE
  8
0
 10
-5.82307
 20
102.062
 11
-5.75269
 21
102.054
  0
LINE
  8
0
 10
-5.75269
 20
102.054
 11
-5.64336
 21
102.038
  0
LINE
  8
0
 10
-5.64336
 20
102.038
 11
-5.56689
 21
102.022
  0
LINE
  8
0
 10
-5.56689
 20
102.022
 11
-5.46117
 21
101.995
  0
LINE
  8
0
 10
-5.46117
 20
101.995
 11
-5.38718
 21
101.973
  0
LINE
  8
0
 10
-5.38718
 20
101.973
 11
-5.28543
 21
101.937
  0
LINE
  8
0
 10
-5.28543
 20
101.937
 11
-5.21036
 21
101.907
  0
LINE
  8
0
 10
-5.21036
 20
101.907
 11
-5.11299
 21
101.861
  0
LINE
  8
0
 10
-5.11299
 20
101.861
 11
-5.04404
 21
101.827
  0
LINE
  8
0
 10
-5.04404
 20
101.827
 11
-4.90865
 21
101.746
  0
LINE
  8
0
 10
-4.90865
 20
101.746
 11
-4.88741
 21
101.733
  0
LINE
  8
0
 10
-4.88741
 20
101.733
 11
-4.73674
 21
101.621
  0
LINE
  8
0
 10
-4.73674
 20
101.621
 11
-4.72115
 21
101.608
  0
LINE
  8
0
 10
-4.72115
 20
101.608
 11
-4.59108
 21
101.49
  0
LINE
  8
0
 10
-4.59108
 20
101.49
 11
-4.57751
 21
101.476
  0
LINE
  8
0
 10
-4.57751
 20
101.476
 11
-4.45993
 21
101.346
  0
LINE
  8
0
 10
-4.45993
 20
101.346
 11
-4.44424
 21
101.327
  0
LINE
  8
0
 10
-4.44424
 20
101.327
 11
-4.34235
 21
101.189
  0
LINE
  8
0
 10
-4.34235
 20
101.189
 11
-4.32947
 21
101.17
  0
LINE
  8
0
 10
-4.32947
 20
101.17
 11
-4.2406
 21
101.021
  0
LINE
  8
0
 10
-4.2406
 20
101.021
 11
-4.22969
 21
101
  0
LINE
  8
0
 10
-4.22969
 20
101
 11
-4.15721
 21
100.847
  0
LINE
  8
0
 10
-4.15721
 20
100.847
 11
-4.14651
 21
100.82
  0
LINE
  8
0
 10
-4.14651
 20
100.82
 11
-4.0891
 21
100.66
  0
LINE
  8
0
 10
-4.0891
 20
100.66
 11
-4.08316
 21
100.64
  0
LINE
  8
0
 10
-4.08316
 20
100.64
 11
-4.04091
 21
100.471
  0
LINE
  8
0
 10
-4.04091
 20
100.471
 11
-4.03729
 21
100.454
  0
LINE
  8
0
 10
-4.03729
 20
100.454
 11
-4.01439
 21
100.299
  0
LINE
  8
0
 10
-4.01439
 20
100.299
 11
-4.00867
 21
100.248
  0
LINE
  8
0
 10
-4.00867
 20
100.248
 11
-4
 21
100.071
  0
LINE
  8
0
 10
-4
 20
100.071
 11
-4
 21
86
  0
LINE
  8
0
 10
-4
 20
86
 11
-3.99144
 21
85.8695
  0
LINE
  8
0
 10
-3.99144
 20
85.8695
 11
-3.96591
 21
85.7412
  0
LINE
  8
0
 10
-3.96591
 20
85.7412
 11
-3.92387
 21
85.6173
  0
LINE
  8
0
 10
-3.92387
 20
85.6173
 11
-3.86601
 21
85.5
  0
LINE
  8
0
 10
-3.86601
 20
85.5
 11
-3.79335
 21
85.3912
  0
LINE
  8
0
 10
-3.79335
 20
85.3912
 11
-3.70709
 21
85.2929
  0
LINE
  8
0
 10
-3.70709
 20
85.2929
 11
-3.60875
 21
85.2066
  0
LINE
  8
0
 10
-3.60875
 20
85.2066
 11
-3.5
 21
85.134
  0
LINE
  8
0
 10
-3.5
 20
85.134
 11
-3.38268
 21
85.0761
  0
LINE
  8
0
 10
-3.38268
 20
85.0761
 11
-3.2588
 21
85.0341
  0
LINE
  8
0
 10
-3.2588
 20
85.0341
 11
-3.13052
 21
85.0085
  0
LINE
  8
0
 10
-3.13052
 20
85.0085
 11
-3
 21
85
  0
LINE
  8
0
 10
-3
 20
85
 11
-1
 21
85
  0
LINE
  8
0
 10
-1
 20
85
 11
0
 21
86
  0
ENDSEC
  0
SECTION
  2
OBJECTS
  0
DICTIONARY
  0
ENDSEC
  0
EOF
